{
  "content": [
    {
      "createdAt": "2019-09-10T08:55:49.313+0000",
      "updatedAt": "2019-09-10T08:55:49.313+0000",
      "id": 1001,
      "artWorkName": "Skrik",
      "imageUrl": "https://i.pinimg.com/originals/dd/39/c3/dd39c337d266e5322d708e4f02221983.jpg",
      "description": "Todas las versiones del cuadro muestran una figura andrógina en primer plano, que simboliza a un hombre moderno en un momento de profunda angustia y desesperación existencial. El paisaje del fondo es Oslo visto desde la colina de Ekeberg.",
      "artType": "paint",
      "releaseYear": "1893",
      "country": "Oslo, Noruega",
      "artistName": "Edvard Munch"
    },
    {
      "createdAt": "2019-09-10T08:55:49.999+0000",
      "updatedAt": "2019-09-10T08:55:49.999+0000",
      "id": 1002,
      "artWorkName": "Skrik",
      "imageUrl": "https://i.pinimg.com/originals/dd/39/c3/dd39c337d266e5322d708e4f02221983.jpg",
      "description": "Todas las versiones del cuadro muestran una figura andrógina en primer plano, que simboliza a un hombre moderno en un momento de profunda angustia y desesperación existencial. El paisaje del fondo es Oslo visto desde la colina de Ekeberg.",
      "artType": "paint",
      "releaseYear": "1893",
      "country": "Oslo, Noruega",
      "artistName": "Edvard Munch"
    },
    {
      "createdAt": "2019-09-10T08:55:50.647+0000",
      "updatedAt": "2019-09-10T08:55:50.647+0000",
      "id": 1003,
      "artWorkName": "Skrik",
      "imageUrl": "https://i.pinimg.com/originals/dd/39/c3/dd39c337d266e5322d708e4f02221983.jpg",
      "description": "Todas las versiones del cuadro muestran una figura andrógina en primer plano, que simboliza a un hombre moderno en un momento de profunda angustia y desesperación existencial. El paisaje del fondo es Oslo visto desde la colina de Ekeberg.",
      "artType": "paint",
      "releaseYear": "1893",
      "country": "Oslo, Noruega",
      "artistName": "Edvard Munch"
    },
    {
      "createdAt": "2019-09-10T08:55:51.516+0000",
      "updatedAt": "2019-09-10T08:55:51.516+0000",
      "id": 1004,
      "artWorkName": "Skrik",
      "imageUrl": "https://i.pinimg.com/originals/dd/39/c3/dd39c337d266e5322d708e4f02221983.jpg",
      "description": "Todas las versiones del cuadro muestran una figura andrógina en primer plano, que simboliza a un hombre moderno en un momento de profunda angustia y desesperación existencial. El paisaje del fondo es Oslo visto desde la colina de Ekeberg.",
      "artType": "paint",
      "releaseYear": "1893",
      "country": "Oslo, Noruega",
      "artistName": "Edvard Munch"
    },
    {
      "createdAt": "2019-09-10T08:55:52.548+0000",
      "updatedAt": "2019-09-10T08:55:52.548+0000",
      "id": 1005,
      "artWorkName": "Skrik",
      "imageUrl": "https://i.pinimg.com/originals/dd/39/c3/dd39c337d266e5322d708e4f02221983.jpg",
      "description": "Todas las versiones del cuadro muestran una figura andrógina en primer plano, que simboliza a un hombre moderno en un momento de profunda angustia y desesperación existencial. El paisaje del fondo es Oslo visto desde la colina de Ekeberg.",
      "artType": "paint",
      "releaseYear": "1893",
      "country": "Oslo, Noruega",
      "artistName": "Edvard Munch"
    },
    {
      "createdAt": "2019-09-10T08:55:53.268+0000",
      "updatedAt": "2019-09-10T08:55:53.268+0000",
      "id": 1006,
      "artWorkName": "Skrik",
      "imageUrl": "https://i.pinimg.com/originals/dd/39/c3/dd39c337d266e5322d708e4f02221983.jpg",
      "description": "Todas las versiones del cuadro muestran una figura andrógina en primer plano, que simboliza a un hombre moderno en un momento de profunda angustia y desesperación existencial. El paisaje del fondo es Oslo visto desde la colina de Ekeberg.",
      "artType": "paint",
      "releaseYear": "1893",
      "country": "Oslo, Noruega",
      "artistName": "Edvard Munch"
    },
    {
      "createdAt": "2019-09-10T08:59:50.274+0000",
      "updatedAt": "2019-09-10T08:59:50.274+0000",
      "id": 1007,
      "artWorkName": "Skrik",
      "imageUrl": "https://i.pinimg.com/originals/dd/39/c3/dd39c337d266e5322d708e4f02221983.jpg",
      "description": "Todas las versiones del cuadro muestran una figura andrógina en primer plano, que simboliza a un hombre moderno en un momento de profunda angustia y desesperación existencial. El paisaje del fondo es Oslo visto desde la colina de Ekeberg.",
      "artType": "paint",
      "releaseYear": "1893",
      "country": "Oslo, Noruega",
      "artistName": "Edvard Munch"
    },
    {
      "createdAt": "2019-09-10T08:59:51.243+0000",
      "updatedAt": "2019-09-10T08:59:51.243+0000",
      "id": 1008,
      "artWorkName": "Skrik",
      "imageUrl": "https://i.pinimg.com/originals/dd/39/c3/dd39c337d266e5322d708e4f02221983.jpg",
      "description": "Todas las versiones del cuadro muestran una figura andrógina en primer plano, que simboliza a un hombre moderno en un momento de profunda angustia y desesperación existencial. El paisaje del fondo es Oslo visto desde la colina de Ekeberg.",
      "artType": "paint",
      "releaseYear": "1893",
      "country": "Oslo, Noruega",
      "artistName": "Edvard Munch"
    },
    {
      "createdAt": "2019-09-10T08:59:52.804+0000",
      "updatedAt": "2019-09-10T08:59:52.804+0000",
      "id": 1009,
      "artWorkName": "Skrik",
      "imageUrl": "https://i.pinimg.com/originals/dd/39/c3/dd39c337d266e5322d708e4f02221983.jpg",
      "description": "Todas las versiones del cuadro muestran una figura andrógina en primer plano, que simboliza a un hombre moderno en un momento de profunda angustia y desesperación existencial. El paisaje del fondo es Oslo visto desde la colina de Ekeberg.",
      "artType": "paint",
      "releaseYear": "1893",
      "country": "Oslo, Noruega",
      "artistName": "Edvard Munch"
    },
    {
      "createdAt": "2019-09-10T08:59:53.631+0000",
      "updatedAt": "2019-09-10T08:59:53.631+0000",
      "id": 1010,
      "artWorkName": "Skrik",
      "imageUrl": "https://i.pinimg.com/originals/dd/39/c3/dd39c337d266e5322d708e4f02221983.jpg",
      "description": "Todas las versiones del cuadro muestran una figura andrógina en primer plano, que simboliza a un hombre moderno en un momento de profunda angustia y desesperación existencial. El paisaje del fondo es Oslo visto desde la colina de Ekeberg.",
      "artType": "paint",
      "releaseYear": "1893",
      "country": "Oslo, Noruega",
      "artistName": "Edvard Munch"
    },
    {
      "createdAt": "2019-09-10T08:59:58.596+0000",
      "updatedAt": "2019-09-10T08:59:58.596+0000",
      "id": 1015,
      "artWorkName": "Skrik",
      "imageUrl": "https://i.pinimg.com/originals/dd/39/c3/dd39c337d266e5322d708e4f02221983.jpg",
      "description": "Todas las versiones del cuadro muestran una figura andrógina en primer plano, que simboliza a un hombre moderno en un momento de profunda angustia y desesperación existencial. El paisaje del fondo es Oslo visto desde la colina de Ekeberg.",
      "artType": "paint",
      "releaseYear": "1893",
      "country": "Oslo, Noruega",
      "artistName": "Edvard Munch"
    },
    {
      "createdAt": "2019-09-10T08:59:54.404+0000",
      "updatedAt": "2019-09-10T08:59:54.404+0000",
      "id": 1011,
      "artWorkName": "Skrik",
      "imageUrl": "https://i.pinimg.com/originals/dd/39/c3/dd39c337d266e5322d708e4f02221983.jpg",
      "description": "Todas las versiones del cuadro muestran una figura andrógina en primer plano, que simboliza a un hombre moderno en un momento de profunda angustia y desesperación existencial. El paisaje del fondo es Oslo visto desde la colina de Ekeberg.",
      "artType": "paint",
      "releaseYear": "1893",
      "country": "Oslo, Noruega",
      "artistName": "Edvard Munch"
    },
    {
      "createdAt": "2019-09-10T08:59:56.235+0000",
      "updatedAt": "2019-09-10T08:59:56.235+0000",
      "id": 1012,
      "artWorkName": "Skrik",
      "imageUrl": "https://i.pinimg.com/originals/dd/39/c3/dd39c337d266e5322d708e4f02221983.jpg",
      "description": "Todas las versiones del cuadro muestran una figura andrógina en primer plano, que simboliza a un hombre moderno en un momento de profunda angustia y desesperación existencial. El paisaje del fondo es Oslo visto desde la colina de Ekeberg.",
      "artType": "paint",
      "releaseYear": "1893",
      "country": "Oslo, Noruega",
      "artistName": "Edvard Munch"
    },
    {
      "createdAt": "2019-09-10T08:59:57.003+0000",
      "updatedAt": "2019-09-10T08:59:57.003+0000",
      "id": 1013,
      "artWorkName": "Skrik",
      "imageUrl": "https://i.pinimg.com/originals/dd/39/c3/dd39c337d266e5322d708e4f02221983.jpg",
      "description": "Todas las versiones del cuadro muestran una figura andrógina en primer plano, que simboliza a un hombre moderno en un momento de profunda angustia y desesperación existencial. El paisaje del fondo es Oslo visto desde la colina de Ekeberg.",
      "artType": "paint",
      "releaseYear": "1893",
      "country": "Oslo, Noruega",
      "artistName": "Edvard Munch"
    },
    {
      "createdAt": "2019-09-10T08:59:57.824+0000",
      "updatedAt": "2019-09-10T08:59:57.825+0000",
      "id": 1014,
      "artWorkName": "Skrik",
      "imageUrl": "https://i.pinimg.com/originals/dd/39/c3/dd39c337d266e5322d708e4f02221983.jpg",
      "description": "Todas las versiones del cuadro muestran una figura andrógina en primer plano, que simboliza a un hombre moderno en un momento de profunda angustia y desesperación existencial. El paisaje del fondo es Oslo visto desde la colina de Ekeberg.",
      "artType": "paint",
      "releaseYear": "1893",
      "country": "Oslo, Noruega",
      "artistName": "Edvard Munch"
    },
    {
      "createdAt": "2019-09-10T08:59:59.433+0000",
      "updatedAt": "2019-09-10T08:59:59.433+0000",
      "id": 1016,
      "artWorkName": "Skrik",
      "imageUrl": "https://i.pinimg.com/originals/dd/39/c3/dd39c337d266e5322d708e4f02221983.jpg",
      "description": "Todas las versiones del cuadro muestran una figura andrógina en primer plano, que simboliza a un hombre moderno en un momento de profunda angustia y desesperación existencial. El paisaje del fondo es Oslo visto desde la colina de Ekeberg.",
      "artType": "paint",
      "releaseYear": "1893",
      "country": "Oslo, Noruega",
      "artistName": "Edvard Munch"
    },
    {
      "createdAt": "2019-09-10T09:00:00.177+0000",
      "updatedAt": "2019-09-10T09:00:00.177+0000",
      "id": 1017,
      "artWorkName": "Skrik",
      "imageUrl": "https://i.pinimg.com/originals/dd/39/c3/dd39c337d266e5322d708e4f02221983.jpg",
      "description": "Todas las versiones del cuadro muestran una figura andrógina en primer plano, que simboliza a un hombre moderno en un momento de profunda angustia y desesperación existencial. El paisaje del fondo es Oslo visto desde la colina de Ekeberg.",
      "artType": "paint",
      "releaseYear": "1893",
      "country": "Oslo, Noruega",
      "artistName": "Edvard Munch"
    },
    {
      "createdAt": "2019-09-10T09:00:00.933+0000",
      "updatedAt": "2019-09-10T09:00:00.933+0000",
      "id": 1018,
      "artWorkName": "Skrik",
      "imageUrl": "https://i.pinimg.com/originals/dd/39/c3/dd39c337d266e5322d708e4f02221983.jpg",
      "description": "Todas las versiones del cuadro muestran una figura andrógina en primer plano, que simboliza a un hombre moderno en un momento de profunda angustia y desesperación existencial. El paisaje del fondo es Oslo visto desde la colina de Ekeberg.",
      "artType": "paint",
      "releaseYear": "1893",
      "country": "Oslo, Noruega",
      "artistName": "Edvard Munch"
    },
    {
      "createdAt": "2019-09-10T09:00:01.749+0000",
      "updatedAt": "2019-09-10T09:00:01.749+0000",
      "id": 1019,
      "artWorkName": "Skrik",
      "imageUrl": "https://i.pinimg.com/originals/dd/39/c3/dd39c337d266e5322d708e4f02221983.jpg",
      "description": "Todas las versiones del cuadro muestran una figura andrógina en primer plano, que simboliza a un hombre moderno en un momento de profunda angustia y desesperación existencial. El paisaje del fondo es Oslo visto desde la colina de Ekeberg.",
      "artType": "paint",
      "releaseYear": "1893",
      "country": "Oslo, Noruega",
      "artistName": "Edvard Munch"
    },
    {
      "createdAt": "2019-09-10T09:00:02.517+0000",
      "updatedAt": "2019-09-10T09:00:02.517+0000",
      "id": 1020,
      "artWorkName": "Skrik",
      "imageUrl": "https://i.pinimg.com/originals/dd/39/c3/dd39c337d266e5322d708e4f02221983.jpg",
      "description": "Todas las versiones del cuadro muestran una figura andrógina en primer plano, que simboliza a un hombre moderno en un momento de profunda angustia y desesperación existencial. El paisaje del fondo es Oslo visto desde la colina de Ekeberg.",
      "artType": "paint",
      "releaseYear": "1893",
      "country": "Oslo, Noruega",
      "artistName": "Edvard Munch"
    }
  ],
  "pageable": {
    "sort": {
      "sorted": false,
      "unsorted": true,
      "empty": true
    },
    "pageSize": 20,
    "pageNumber": 0,
    "offset": 0,
    "paged": true,
    "unpaged": false
  },
  "totalPages": 2,
  "totalElements": 21,
  "last": false,
  "first": true,
  "sort": {
    "sorted": false,
    "unsorted": true,
    "empty": true
  },
  "numberOfElements": 20,
  "size": 20,
  "number": 0,
  "empty": false
}